#tag,#amount,#gl,#Desc,#note
7,5000,gl7,DISK,JAN purchase,PAID 5000
7,7000,gl7,DISK,FEB purchase,PAID 7000
5,25000,gl5,SERVERS,JAN M&O,PAID 25000
5,55000,gl5,SERVERS,APR M&O,PAID 55000
6,43000,gl6,RUBRIK,FEB M&O,PAID 43000
