#LINE NUM/ID,#Orig 2020,#Orig 2020 ADJ,#Orig 2019,#2019 ADJ ,#Account Code,#TAG,#Manager Description,#PC Unique Sorter1
4,0,0,0,0,513056,ERP_BUDGET_REDHAT_,ERP Budget RedHat - It is our understanding that this is now being taken care of by ERP.,BESPOKE
5,0,0,0,0,513056,SQL_SERVER_LICENSE,SQL Server licenses (Tax+AHS) - Bespoke.  Paid for in the SQL Annual True-up.,BESPOKE
6,0,0,0,0,513056,TAX_RSA_TOKENS+LIC,Tax RSA tokens+licenses (FY15 purchase),BESPOKE
7,0,0,0,0,513056,ORACLE_DB_LICENSES,Oracle DB licenses (SAS + ERP-Budget),BESPOKE
8,0,0,0,0,513056,STROMASYS_SA_(SHAR,Stromasys SA (Sharon Gold) - Bespoke,NA
9,200000,144000,632500,332500,522275,DR_01_DISASTER_REC, DR_01 Disaster Recovery (DR),CAPEX
10,250000,15000,250000,0,522275,SOC-NOC_CLOUD_SHAR,SOC-NOC Cloud Share Implementation - Per CTO SOC/NOC planning.,CAPEX
11,100000,100000,100000,0,522275,ELASTIC_CAP__CAPAC,Elastic Cap Capacity testing,CAPEX
12,5200,0,4500,4500,522276,DELL_EMC01_DISK_PU, DELL_EMC01 Disk purchase February 2019,CAPEX
13,100000,200000,100000,480000,522276,RUBRIK02_GROWTH_ST,Rubrik02 Growth Storage Capacity - Additional Rubriks $500K/5 in 2019 and 2020.,CAPEX
14,100000,100000,100000,500000,522276,ISILON01_STORAGE_-,Isilon01 Storage - Data Mover Replacement - Isilon - To support AHS encrypted Data,CAPEX
15,120000,45223,0,0,507543,SERVER_STAFF_AUG_T,Server Staff Aug Technical staff augmentation with C2 server.  Insurance in the case of a catastrophic disaster to support server rebuild of environment. contract 31983,CONTRACT
16,130000,45223,130000,0,507543,STORAGE_STAFF_AUG_,Storage Staff Aug Technical staff augmentation with C2 for Storage - contract 31983,CONTRACT
17,0,0,0,0,513031,NL_CHASSIS_EXTSUP_,Extend support on two NL chassis? 5yr term ends in FY16,DECOMISSIONED
18,0,0,0,0,513031,ERP_CHASSIS+BLADES,ERP chassis+blades maintenance,DECOMISSIONED
19,0,0,0,0,522282,TAX_F5_-REMOVE_TH,Tax F5  -REMOVE THIS!,DECOMISSIONED
20,0,0,0,0,522275,KVM_IP_,KVM IP,DECOMISSIONED
21,0,0,13000,13000,513031,TV_CHASSIS+BLADES_,TV Chassis+blades DEPRE Two (initial FY15 purchase) -DEPRECIATION,DECOMISSIONED
22,220000,220000,220000,220000,522275,VXRACK01_DEPRE__20,VxRack01 DEPRE 2018 1.1M/5 = 220000.00,DEPRECIATION
23,200000,200000,200000,200000,522276,RUBRIK01_DEPRE__94,Rubrik01 DEPRE 9480000 + 52000 = 1.0M  -DEPRECIATION,DEPRECIATION
24,0,0,0,0,522275,HP_20_BLADES_DEPRE,HP 20 BLADES DEPRE purchased  FY15 purchase of 20 blades - DEPRECIATION,Depreciation expired.  Maintenance listed elsewhere. 
25,57000,57000,57000,57000,513031,SIMPLIVITY_(MGMT_C, Simplivity (MGMT Cluster)  - Simplivity (2850000/5) purchased 2018. ,DEPRECIATION
26,0,0,0,0,522280,DR_VNX4_DEPRE_DR_P,DR VNX4 DEPRE DR part of TV  (20%??) -DEPRECIATION,NA
27,0,0,0,0,522276,TV_REMOVE_,TV REMOVE,NA
28,0,0,0,0,522280,DR_PART_OF_TV_VNX5,DR part of TV VNX5 (20%??) (planned purchase for FY16) -Never Purchased -REMOVE THIS!,NA
29,0,0,0,0,522276,NON-DR_PART_OF_TV_,Non-DR part of TV VNX5 (80%) (planned FY16 purchase) -Never Purchased -REMOVE THIS!,NA
30,0,0,40000,40000,522276,DD2500_DEPRE_(FY15,DD2500 DEPRE (FY15 purchase) - DEPRECIATION,Depreciation expired.  Maintenance listed elsewhere. 
31,6400,6400,6400,6400,522275,SPILLMAN_SERVERS_D, Spillman Servers DEPRE (2)  for DPS  (32000/5)  M&O prepaid for 5 years 2021  -DEPRECIATION ,DEPRECIATION
32,0,0,9000,9000,522280,DD2500_DEPRE_(FY15,DD2500 DEPRE (FY15 purchase) -DEPRECIATION,DEPRECIATION
33,0,0,5000,5000,522276,TV_FABRIC_DEPRE_-,TV Fabric DEPRE (FY15 purcashe w/ blades) -DEPRECIATION,DEPRECIATION
34,1500,1500,1500,1500,522275,ERP_PHYSICAL_PUM_-,ERP Physical PUM - DEPRECIATION 4th year of 5.,DEPRECIATION
35,0,0,0,0,513031,ERP_DR_F5_DEPRE_-D,ERP DR F5 DEPRE -DEPRECIATION,Depreciation expired.  Maintenance listed elsewhere. 
36,0,0,0,0,513031,ERP_ASA_DEPRE_TWO_,ERP ASA DEPRE Two -DEPRECIATION,Depreciation expired.  Maintenance listed elsewhere. 
37,0,0,0,0,513031,ERP_DR_ASA_DEPRE_T,ERP DR ASA DEPRE Two -DEPRECIATION,Depreciation expired.  Maintenance listed elsewhere. 
38,0,0,0,0,513031,ERP_F5_DEPRE_TWO_-,ERP F5 DEPRE Two -DEPRECIATION,Depreciation expired.  Maintenance listed elsewhere. 
39,0,0,0,0,513032,VNX1_MAINT_EXT_(PU,VNX1 Maint Ext (Purchase 2011) -Replacing 2018 or 2019,Depreciation expired.  Maintenance listed elsewhere. 
40,0,0,0,0,513032,VNX2_MAINT_EXT_(PU,VNX2 Maint Ext (Purchase 2012) -Replacing 2018 or 2019,Depreciation expired.  Maintenance listed elsewhere. 
41,0,0,0,0,522275,TV_CHASSIS+BLADES_,TV Chassis+blades DEPRE Two(initial FY15 purchase) - DEPRECIATION,Depreciation expired.  Maintenance listed elsewhere. 
42,0,0,0,0,522275,VDI_EQUIP_DEPRE_C,VDI EQUIP DEPRE  chassis + blades (FY14 purchase?)  JUD - DEPRECIATION,Depreciation expired.  Maintenance listed elsewhere. 
43,0,0,0,0,522275,VDI_FABRIC_DEPRE_(,VDI Fabric DEPRE (FY14 or later purchase?)  JUD - DEPRECIATION,Depreciation expired.  Maintenance listed elsewhere. 
44,0,0,0,0,522275,VDI_VNX_DEPRE_(FY1,VDI VNX DEPRE (FY14 or later purchase?)  JUD - DEPRECIATION,Depreciation expired.  Maintenance listed elsewhere. 
45,0,0,0,0,522276,DD670_DEPRE_EXPANS,DD670 DEPRE expansion (FY15 purchase) - DEPRECIATION,Depreciation expired.  Maintenance listed elsewhere. 
46,0,0,0,0,522276,DD01_DD670_MAINT_(, DD01 DD670 maint (FY11 purchase) DD01 NL/TV -MAINT going away 2018 ,Depreciation expired.  Maintenance listed elsewhere. 
47,0,0,0,0,522276,DD02_DD670_MAINT_(, DD02 DD670 maint (FY12 purchase) DD02 NL/TV -MAINT going away 2018 ,Depreciation expired.  Maintenance listed elsewhere. 
48,0,0,0,0,522276,MANAGEMENT_VNXE_DE,Management VNXe DEPRE at NL (FY14 or later purchase?) - DEPRECIATION,Depreciation expired.  Maintenance listed elsewhere. 
49,0,0,0,0,522276,VNX1_DEPRE_FY15_EX,VNX1 DEPRE FY15 expansion - DEPRECIATION, EXPIRED DEPRECIATION
50,0,0,0,0,522276,VNX2_DEPRE_FY15_EX,VNX2 DEPRE FY15 expansion - DEPRECIATION, EXPIRED DEPRECIATION
51,0,0,0,0,513032,ERP_NL_EVA_MAINTEN,ERP NL EVA maintenance -Replacing 2018,GONE
52,20000,20000,20000,20000,513056,MS_SQL_LICENSES_-_,MS SQL licenses - For Vsphere Management env.,LICENSES
53,10075,10075,10075,10075,513056,SPLUNK_,Splunk,LICENSES
54,1500,1500,1200,1200,516557,NETWRIX_,Netwrix,LICENSES
55,270000,270000,225000,225000,513056,VMWARE_LICENSES_-_,VMWare Licenses - Anticipate need to add additional host with inclusion of AOT.,LICENSES
56,100000,100000,100000,100000,516557,MICROSOFT_OS_DATAC,Microsoft OS datacenter and server licenses - Counts included in MS EA Agreement True-up.  Includes AOT.,LICENSES
57,0,0,75000,0,519085,LOGICMONITOR_LICEN,LogicMonitor Licenses - Discontinued.,GONE
58,0,0,0,0,513057,VERITAS_NETBACKUP_,Veritas Netbackup License - Discontinued.,GONE
59,0,0,0,0,513057,EXISTING_POWERPATH,Existing PowerPath - Discontinued,GONE
60,65000,30000,60000,30000,519081,MICROSOFT_AZURE_(C,Microsoft Azure (Commercial Subscription) - Azure Cloud Licensing.  Increased due to Terraform project.   ,LICENSES
61,30000,30000,30000,15000,519081,COMM_IAAS_[SERVER], Commercial IaaS [Server] Cloud Service Providers: IaaS [Server] -AWS Com AWS  Gov  Azure Com  Azure Gov vCloud,LICENSES
62,30000,30000,30000,15000,519081,COMM_IAAS_[STORAGE, Commercial IaaS [Storage] Cloud Service Providers: IaaS [Storage] -AWS Com AWS  Gov  Azure Com  Azure Gov vCloud,LICENSES
63,10750,10750,10750,10750,513056,SECRET_SERVER_(FY1, Secret Server (FY16 purchase maintenance cost) Thycotic server ,LICENSES
64,11250,11250,11250,11250,513056,SYMANTEC_ENDPOINT_, Symantec Endpoint Protection -  total block of 750: 175 for AOT 50 for DPS 500 CS plus 50 CS growth,LICENSES
65,20000,20000,100000,40246,522288,VIRTUAL_FIREWALLS_,Virtual Firewalls Required Modernization (M&O) - for pfSense M&O.,M&O
66,60000,60000,60000,60000,513032,DATA_DOMAIN_M&O_AN,Data Domain M&O and EMC Disk retention - Needed for compliance. 10K per each DD.  We had hoped to have decommissioned by now however delays in the migration requires keeping these.,M&O
67,132000,132000,132000,132000,522276,EMC_VNX_MAINTENANC, EMC VNX Maintenance and Operations - VNX5800 VNX4 at TV puchased 2015 ,DEPRECIATION
68,75000,75000,75000,75000,513031,HP_SERVER_M&O_,HP Server M&O,M&O 
69,23000,23000,23000,23000,513040,ERP_F5_M&O_-_THESE,ERP F5 M&O - These should be phasing out once migrated to VxRack at Tech Vault.,M&O
70,0,0,0,0,522276,NETBACKUP_SERVERS_,NetBackup servers replacements/additions? 3 servers?,NA
71,0,0,0,0,522276,TAPEDRIVE_(PLANNED,Tapedrive (planned FY16 purchase)  -REMOVE THIS,NA
72,0,0,0,0,522279,REPLACE_ERP_ASAS/F,Replace ERP ASAs/F5 (planned FY16 purchase) - This is in Networking and Security's budget.,NA
73,0,0,0,0,522279,TV_DATACENTER_NETW,TV Datacenter networking (two 7K switches etc) - FY14? DR portion - 20%,NA
74,0,0,0,0,522279,MGMT_3750_STACK_AT,Mgmt 3750 stack at TV (purchased FY13) -DEPRECIATION,NA
75,0,0,0,0,522279,MGMT_ASAS_AT_TV_(P,Mgmt ASAs at TV (purchased FY13) -DEPRECIATION,NA
76,10000,0,50000,33000,507543,VDI_SUPPORT_C2_-ST,VDI Support C2 -starting 7/8/2013 - For only 6 months,CONTRACT
77,0,0,0,0,522280,DD670_EXPANSION_(F,DD670 expansion (FY15 purchase) -DEPRECIATION,NA
78,0,0,0,0,522282,NL_DATACENTER_NETW,NL Datacenter networking (two 7K switches etc) - FY13?  -DEPRECIATION,NA
79,0,0,0,0,522282,REPLACE_ERP_ASAS/F,Replace ERP ASAs/F5s (FY16 purchase),NA
80,0,0,0,0,522282,TV_DATACENTER_NETW,TV Datacenter networking (two 7K switches etc) - FY14? non-DR portion -DEPRECIATION,NA
81,0,0,0,0,522290,ADDITIONAL_POWERPA,Additional PowerPath for new servers,NA
82,0,0,0,0,522292,NL_FAB_EXTSUP__EXT,Extend support on NL Fabric? 5yr term ends in FY16 -Replace for 2018,NA
83,0,0,0,0,522292,DPS_FAB_EXTSUP__EX,Extend support on DPS Fabric? 5yr term ends in FY17 -Replace for 2018,NA
84,0,0,10000,10000,522276,VDI_VNX_(FY14_OR_L,VDI VNX (FY14 or later purchase?) - DEPRECIATION,NA
85,104040,104040,104040,104040,514010,TV_DC_SRV_30%_SPAC,TV Datacenter 30% space [Servers] - Needs assessment as to whether we continue to do it this way?,RENT
86,69360,69360,69360,69360,514010,TV_DC_STRG_20%_SPA,TV Datacenter 20% space [Storage] - Needs assessment as to whether we continue to do it this way?,RENT
87,40000,40000,30000,30000,519081,ZERTO_TESTING_,Zerto testing,LICENSES
88,60000,60000,0,0,513031,ESXI_HOSTS_M&O_FUN,ESXI hosts M&O fund.  Hosts needing M&O after prepaid M&O expired,M&O
89,33600,33600,33600,33600,514010,NL_DC_STR_20__DATA,NL Datacenter 20% space [Storage] - Needs assessment as to whether we continue to do it this way?,RENT
90,3000,3000,3000,3000,514010,ESSEX_OFFICE_SPACE,Office space in Essex for 1.5 FTE (Dan),RENT
91,67200,67200,67200,67200,514010,NL_DC_SRV_40__DATA,NL Datacenter 40% space [Servers] - Needs assessment as to whether we continue to do it this way?,RENT
92,50000,50000,0,0,513032,VNX_M&O_VNX01__VNX, VNX_M&O VNX01 VNX02 VNX03 M&O - Storage off prepaid support and M&O. ,M&O
93,100000,100000,0,0,513031,DPS_DEDICATED_EQUI,DPS Dedicated Equipment - If DPS is determined to need dedicated equipment for compliance reasons. ESXI hosts M&O fund.,CAPEX
661,0,56000,0,0,522275,VxRail_4_node_NL,VxRail_4_node_NL,DEPRECIATION
662,0,100000,0,0,522276,Isilon_h400_tv_a200_NL,Isilon_h400_tv and a200_NL,DEPRECIATION
663,0,100000,0,0,522276,Rubrik_2019_2_devices_Jan2019,Rubrik_2019_2_devices_Jan2019,DEPRECIATION
777,0,2000,2000,2000,ADJ_ENCUMB,ADS PC Hardware,ADS PC Hardware Budget Start $2000 GL522216,OPS EXPENSES
888,0,12754,12754,29754,ADJ_ENCUMB,ADJ_C2 VXRACK Contract 35223,C2 VXRACK Contract + $17K tool 35223 GL507543,CONTRACT
999,0,130000,130000,130000,ADJ_ENCUMB,AOT-PROCURE Budget,AOT-PROCURE Budget Start $130000,ADJ_ENC