#,Budget Entry,Name,2019 Rec,2019 ADJ,Spent/Enc,Balance,GL,Type,Note
1,4,ERP_BUDGET_REDHAT_,0,0,0,0,513056,BESPOKE,ERP Budget RedHat - It is our understanding that this is now being taken care of by ERP.
2,5,SQL_SERVER_LICENSE,0,0,0,0,513056,BESPOKE,SQL Server licenses (Tax+AHS) - Bespoke.  Paid for in the SQL Annual True-up.
3,6,TAX_RSA_TOKENS+LIC,0,0,0,0,513056,BESPOKE,Tax RSA tokens+licenses (FY15 purchase)
4,7,ORACLE_DB_LICENSES,0,0,0,0,513056,BESPOKE,Oracle DB licenses (SAS + ERP-Budget)
5,8,STROMASYS_SA_(SHAR,0,0,0,0,513056,NA,Stromasys SA (Sharon Gold) - Bespoke
6,9,DR_01_DISASTER_REC,632500,332500,290000,42500,522275,CAPEX, DR_01 Disaster Recovery (DR)
, , , , , , , , , ,9-DR_01_DISASTER_REC, 290000, ENC - 12
7,10,SOC-NOC_CLOUD_SHAR,250000,0,0,0,522275,CAPEX,SOC-NOC Cloud Share Implementation - Per CTO SOC/NOC planning.
8,11,ELASTIC_CAP__CAPAC,100000,0,0,0,522275,CAPEX,Elastic Cap Capacity testing
9,12,DELL_EMC01_DISK_PU,4500,4500,26000,-21500,522276,CAPEX, DELL_EMC01 Disk purchase February 2019
, , , , , , , , , ,12-DELL_EMC01_DISK_PU, 26000, ENC - 2
10,13,RUBRIK02_GROWTH_ST,100000,480000,462000,18000,522276,CAPEX,Rubrik02 Growth Storage Capacity - Additional Rubriks $500K/5 in 2019 and 2020.
, , , , , , , , , ,13-RUBRIK02_GROWTH_ST, 462000, ENC ADJ - 12
11,14,ISILON01_STORAGE_-,100000,500000,477500,22500,522276,CAPEX,Isilon01 Storage - Data Mover Replacement - Isilon - To support AHS encrypted Data
, , , , , , , , , ,14-ISILON01_STORAGE_-, 477500, ENC ADJ - 12
12,15,SERVER_STAFF_AUG_T,0,0,0,0,507543,CONTRACT,Server Staff Aug Technical staff augmentation with C2 server.  Insurance in the case of a catastrophic disaster to support server rebuild of environment. contract 31983
13,16,STORAGE_STAFF_AUG_,130000,0,0,0,507543,CONTRACT,Storage Staff Aug Technical staff augmentation with C2 for Storage - contract 31983
14,17,NL_CHASSIS_EXTSUP_,0,0,0,0,513031,DECOMISSIONED,Extend support on two NL chassis? 5yr term ends in FY16
15,18,ERP_CHASSIS+BLADES,0,0,0,0,513031,DECOMISSIONED,ERP chassis+blades maintenance
16,19,TAX_F5_-REMOVE_TH,0,0,0,0,522282,DECOMISSIONED,Tax F5  -REMOVE THIS!
17,20,KVM_IP_,0,0,0,0,522275,DECOMISSIONED,KVM IP
18,21,TV_CHASSIS+BLADES_,13000,13000,13000,0,513031,DECOMISSIONED,TV Chassis+blades DEPRE Two (initial FY15 purchase) -DEPRECIATION
, , , , , , , , , ,21-TV_CHASSIS+BLADES_, 13000, DEPR - 7
19,22,VXRACK01_DEPRE__20,220000,220000,220000,0,522275,DEPRECIATION,VxRack01 DEPRE 2018 1.1M/5 = 220000.00
, , , , , , , , , ,22-VXRACK01_DEPRE__20, 220000, DEPR - 7
20,23,RUBRIK01_DEPRE__94,200000,200000,200000,0,522276,DEPRECIATION,Rubrik01 DEPRE 9480000 + 52000 = 1.0M  -DEPRECIATION
, , , , , , , , , ,23-RUBRIK01_DEPRE__94, 200000, DEPR - 7
21,24,HP_20_BLADES_DEPRE,0,0,0,0,522275,Depreciation expired.  Maintenance listed elsewhere. ,HP 20 BLADES DEPRE purchased  FY15 purchase of 20 blades - DEPRECIATION
22,25,SIMPLIVITY_(MGMT_C,57000,57000,57000,0,513031,DEPRECIATION, Simplivity (MGMT Cluster)  - Simplivity (2850000/5) purchased 2018. 
, , , , , , , , , ,25-SIMPLIVITY_(MGMT_C, 57000, DEPR - 7
23,26,DR_VNX4_DEPRE_DR_P,0,0,0,0,522280,NA,DR VNX4 DEPRE DR part of TV  (20%??) -DEPRECIATION
24,27,TV_REMOVE_,0,0,0,0,522276,NA,TV REMOVE
25,28,DR_PART_OF_TV_VNX5,0,0,0,0,522280,NA,DR part of TV VNX5 (20%??) (planned purchase for FY16) -Never Purchased -REMOVE THIS!
26,29,NON-DR_PART_OF_TV_,0,0,0,0,522276,NA,Non-DR part of TV VNX5 (80%) (planned FY16 purchase) -Never Purchased -REMOVE THIS!
27,30,DD2500_DEPRE_(FY15,40000,40000,40000,0,522276,Depreciation expired.  Maintenance listed elsewhere. ,DD2500 DEPRE (FY15 purchase) - DEPRECIATION
, , , , , , , , , ,30-DD2500_DEPRE_(FY15, 40000, DEPR - 7
28,31,SPILLMAN_SERVERS_D,6400,6400,6400,0,522275,DEPRECIATION, Spillman Servers DEPRE (2)  for DPS  (32000/5)  M&O prepaid for 5 years 2021  -DEPRECIATION 
, , , , , , , , , ,31-SPILLMAN_SERVERS_D, 6400, DEPR - 7
29,32,DD2500_DEPRE_(FY15,9000,9000,9000,0,522280,DEPRECIATION,DD2500 DEPRE (FY15 purchase) -DEPRECIATION
, , , , , , , , , ,32-DD2500_DEPRE_(FY15, 9000, DEPR - 7
30,33,TV_FABRIC_DEPRE_-,5000,5000,5000,0,522276,DEPRECIATION,TV Fabric DEPRE (FY15 purcashe w/ blades) -DEPRECIATION
, , , , , , , , , ,33-TV_FABRIC_DEPRE_-, 5000, DEPR - 7
31,34,ERP_PHYSICAL_PUM_-,1500,1500,1500,0,522275,DEPRECIATION,ERP Physical PUM - DEPRECIATION 4th year of 5.
, , , , , , , , , ,34-ERP_PHYSICAL_PUM_-, 1500, DEPR - 7
32,35,ERP_DR_F5_DEPRE_-D,0,0,0,0,513031,Depreciation expired.  Maintenance listed elsewhere. ,ERP DR F5 DEPRE -DEPRECIATION
33,36,ERP_ASA_DEPRE_TWO_,0,0,0,0,513031,Depreciation expired.  Maintenance listed elsewhere. ,ERP ASA DEPRE Two -DEPRECIATION
34,37,ERP_DR_ASA_DEPRE_T,0,0,0,0,513031,Depreciation expired.  Maintenance listed elsewhere. ,ERP DR ASA DEPRE Two -DEPRECIATION
35,38,ERP_F5_DEPRE_TWO_-,0,0,0,0,513031,Depreciation expired.  Maintenance listed elsewhere. ,ERP F5 DEPRE Two -DEPRECIATION
36,39,VNX1_MAINT_EXT_(PU,0,0,0,0,513032,Depreciation expired.  Maintenance listed elsewhere. ,VNX1 Maint Ext (Purchase 2011) -Replacing 2018 or 2019
37,40,VNX2_MAINT_EXT_(PU,0,0,0,0,513032,Depreciation expired.  Maintenance listed elsewhere. ,VNX2 Maint Ext (Purchase 2012) -Replacing 2018 or 2019
38,41,TV_CHASSIS+BLADES_,0,0,0,0,522275,Depreciation expired.  Maintenance listed elsewhere. ,TV Chassis+blades DEPRE Two(initial FY15 purchase) - DEPRECIATION
39,42,VDI_EQUIP_DEPRE_C,0,0,0,0,522275,Depreciation expired.  Maintenance listed elsewhere. ,VDI EQUIP DEPRE  chassis + blades (FY14 purchase?)  JUD - DEPRECIATION
40,43,VDI_FABRIC_DEPRE_(,0,0,0,0,522275,Depreciation expired.  Maintenance listed elsewhere. ,VDI Fabric DEPRE (FY14 or later purchase?)  JUD - DEPRECIATION
41,44,VDI_VNX_DEPRE_(FY1,0,0,0,0,522275,Depreciation expired.  Maintenance listed elsewhere. ,VDI VNX DEPRE (FY14 or later purchase?)  JUD - DEPRECIATION
42,45,DD670_DEPRE_EXPANS,0,0,0,0,522276,Depreciation expired.  Maintenance listed elsewhere. ,DD670 DEPRE expansion (FY15 purchase) - DEPRECIATION
43,46,DD01_DD670_MAINT_(,0,0,0,0,522276,Depreciation expired.  Maintenance listed elsewhere. , DD01 DD670 maint (FY11 purchase) DD01 NL/TV -MAINT going away 2018 
44,47,DD02_DD670_MAINT_(,0,0,0,0,522276,Depreciation expired.  Maintenance listed elsewhere. , DD02 DD670 maint (FY12 purchase) DD02 NL/TV -MAINT going away 2018 
45,48,MANAGEMENT_VNXE_DE,0,0,0,0,522276,Depreciation expired.  Maintenance listed elsewhere. ,Management VNXe DEPRE at NL (FY14 or later purchase?) - DEPRECIATION
46,49,VNX1_DEPRE_FY15_EX,0,0,0,0,522276, EXPIRED DEPRECIATION,VNX1 DEPRE FY15 expansion - DEPRECIATION
47,50,VNX2_DEPRE_FY15_EX,0,0,0,0,522276, EXPIRED DEPRECIATION,VNX2 DEPRE FY15 expansion - DEPRECIATION
48,51,ERP_NL_EVA_MAINTEN,0,0,0,0,513032,GONE,ERP NL EVA maintenance -Replacing 2018
49,52,MS_SQL_LICENSES_-_,20000,20000,20000,0,513056,LICENSES,MS SQL licenses - For Vsphere Management env.
, , , , , , , , , ,52-MS_SQL_LICENSES_-_, 20000, ENC in MS EA - 7
50,53,SPLUNK_,10075,10075,9565,510,513056,LICENSES,Splunk
, , , , , , , , , ,53-SPLUNK_, 9565, PAID - SPLUNK_ SHI invB09167441
51,54,NETWRIX_,1200,1200,996.80,203.2,516557,LICENSES,Netwrix
, , , , , , , , , ,54-NETWRIX_, 996.80, PAID - NETWRIX_ SHI invB08728138
52,55,VMWARE_LICENSES_-_,225000,225000,219348,5652,513056,LICENSES,VMWare Licenses - Anticipate need to add additional host with inclusion of AOT.
, , , , , , , , , ,55-VMWARE_LICENSES_-_, 207348.00, PAID - VMWARE_LICENSES_-_ C2 inv24402
, , , , , , , , , ,55-VMWARE_LICENSES_-_, 12000.00, ENC - AOT
53,56,MICROSOFT_OS_DATAC,100000,100000,100000,0,516557,LICENSES,Microsoft OS datacenter and server licenses - Counts included in MS EA Agreement True-up.  Includes AOT.
, , , , , , , , , ,56-MICROSOFT_OS_DATAC, 100000, ENC in MS EA - 7
54,57,LOGICMONITOR_LICEN,75000,0,0,0,519085,GONE,LogicMonitor Licenses - Discontinued.
55,58,VERITAS_NETBACKUP_,0,0,0,0,513057,GONE,Veritas Netbackup License - Discontinued.
56,59,EXISTING_POWERPATH,0,0,0,0,513057,GONE,Existing PowerPath - Discontinued
57,60,MICROSOFT_AZURE_(C,60000,30000,29925.00,75,519081,LICENSES,Microsoft Azure (Commercial Subscription) - Azure Cloud Licensing.  Increased due to Terraform project.   
, , , , , , , , , ,60-MICROSOFT_AZURE_(C, 29925.00, ENC in MS EA - 7
58,61,COMM_IAAS_[SERVER],30000,15000,1260.93,13739.07,519081,LICENSES, Commercial IaaS [Server] Cloud Service Providers: IaaS [Server] -AWS Com AWS  Gov  Azure Com  Azure Gov vCloud
, , , , , , , , , ,61-COMM_IAAS_[SERVER], 251.83, PAID - COMM_IAAS_[SERVER] AWS invoice145844931
, , , , , , , , , ,61-COMM_IAAS_[SERVER], 272.39, PAID - COMM_IAAS_[SERVER] AWS invoice149797165
, , , , , , , , , ,61-COMM_IAAS_[SERVER], 8.24, PAID - COMM_IAAS_[SERVER] AWS invoice150308184
, , , , , , , , , ,61-COMM_IAAS_[SERVER], 243.70, PAID - COMM_IAAS_[SERVER] AWS invoice150316049
, , , , , , , , , ,61-COMM_IAAS_[SERVER], 236.34, PAID - COMM_IAAS_[SERVER] AWS invoice155615791
, , , , , , , , , ,61-COMM_IAAS_[SERVER], 22.24, PAID - COMM_IAAS_[SERVER] AWS invoice155625484
, , , , , , , , , ,61-COMM_IAAS_[SERVER], 226.19, PAID - COMM_IAAS_[SERVER] AWS invoice159088217
59,62,COMM_IAAS_[STORAGE,30000,15000,0,15000,519081,LICENSES, Commercial IaaS [Storage] Cloud Service Providers: IaaS [Storage] -AWS Com AWS  Gov  Azure Com  Azure Gov vCloud
60,63,SECRET_SERVER_(FY1,10750,10750,11720,-970,513056,LICENSES, Secret Server (FY16 purchase maintenance cost) Thycotic server 
, , , , , , , , , ,63-SECRET_SERVER_(FY1, 11720, PAID - SECRET_SERVER_(FY1 SHI invB08747846
61,64,SYMANTEC_ENDPOINT_,11250,11250,10275,975,513056,LICENSES, Symantec Endpoint Protection -  total block of 750: 175 for AOT 50 for DPS 500 CS plus 50 CS growth
, , , , , , , , , ,64-SYMANTEC_ENDPOINT_, 10275, PAID - SYMANTEC_ENDPOINT_ SHI invB08842673
62,65,VIRTUAL_FIREWALLS_,100000,40246,18000,22246,522288,M&O,Virtual Firewalls Required Modernization (M&O) - for pfSense M&O.
, , , , , , , , , ,65-VIRTUAL_FIREWALLS_, 18000, ENC - 7
63,66,DATA_DOMAIN_M&O_AN,60000,60000,80000,-20000,522276,M&O,Data Domain M&O and EMC Disk retention - Needed for compliance. 10K per each DD.  We had hoped to have decommissioned by now however delays in the migration requires keeping these.
, , , , , , , , , ,66-DATA_DOMAIN_M&O_AN, 80000, ENC - 7
64,67,EMC_VNX_MAINTENANC,132000,132000,0,132000,522276,DEPRECIATION, EMC VNX Maintenance and Operations - VNX5800 VNX4 at TV puchased 2015 
65,68,HP_SERVER_M&O_,75000,75000,0,75000,513031,M&O ,HP Server M&O
66,69,ERP_F5_M&O_-_THESE,23000,23000,0,23000,513040,M&O,ERP F5 M&O - These should be phasing out once migrated to VxRack at Tech Vault.
67,70,NETBACKUP_SERVERS_,0,0,0,0,522276,NA,NetBackup servers replacements/additions? 3 servers?
68,71,TAPEDRIVE_(PLANNED,0,0,0,0,522276,NA,Tapedrive (planned FY16 purchase)  -REMOVE THIS
69,72,REPLACE_ERP_ASAS/F,0,0,0,0,522279,NA,Replace ERP ASAs/F5 (planned FY16 purchase) - This is in Networking and Security's budget.
70,73,TV_DATACENTER_NETW,0,0,0,0,522279,NA,TV Datacenter networking (two 7K switches etc) - FY14? DR portion - 20%
71,74,MGMT_3750_STACK_AT,0,0,0,0,522279,NA,Mgmt 3750 stack at TV (purchased FY13) -DEPRECIATION
72,75,MGMT_ASAS_AT_TV_(P,0,0,0,0,522279,NA,Mgmt ASAs at TV (purchased FY13) -DEPRECIATION
73,76,VDI_SUPPORT_C2_-ST,50000,33000,0,33000,507543,CONTRACT,VDI Support C2 -starting 7/8/2013 - For only 6 months
74,77,DD670_EXPANSION_(F,0,0,0,0,522280,NA,DD670 expansion (FY15 purchase) -DEPRECIATION
75,78,NL_DATACENTER_NETW,0,0,0,0,522282,NA,NL Datacenter networking (two 7K switches etc) - FY13?  -DEPRECIATION
76,79,REPLACE_ERP_ASAS/F,0,0,0,0,522282,NA,Replace ERP ASAs/F5s (FY16 purchase)
77,80,TV_DATACENTER_NETW,0,0,0,0,522282,NA,TV Datacenter networking (two 7K switches etc) - FY14? non-DR portion -DEPRECIATION
78,81,ADDITIONAL_POWERPA,0,0,0,0,522290,NA,Additional PowerPath for new servers
79,82,NL_FAB_EXTSUP__EXT,0,0,0,0,522292,NA,Extend support on NL Fabric? 5yr term ends in FY16 -Replace for 2018
80,83,DPS_FAB_EXTSUP__EX,0,0,0,0,522292,NA,Extend support on DPS Fabric? 5yr term ends in FY17 -Replace for 2018
81,84,VDI_VNX_(FY14_OR_L,10000,10000,0,10000,522276,NA,VDI VNX (FY14 or later purchase?) - DEPRECIATION
82,85,TV_DC_SRV_30%_SPAC,104040,104040,104040,0,514010,RENT,TV Datacenter 30% space [Servers] - Needs assessment as to whether we continue to do it this way?
, , , , , , , , , ,85-TV_DC_SRV_30%_SPAC, 104040, ENC - 7
83,86,TV_DC_STRG_20%_SPA,69360,69360,69360,0,514010,RENT,TV Datacenter 20% space [Storage] - Needs assessment as to whether we continue to do it this way?
, , , , , , , , , ,86-TV_DC_STRG_20%_SPA, 69360, ENC - 7
84,87,ZERTO_TESTING_,30000,30000,0,30000,519081,LICENSES,Zerto testing
85,88,ESXI_HOSTS_M&O_FUN,0,0,0,0,513031,M&O,ESXI hosts M&O fund.  Hosts needing M&O after prepaid M&O expired
86,89,NL_DC_STR_20__DATA,33600,33600,33600,0,514010,RENT,NL Datacenter 20% space [Storage] - Needs assessment as to whether we continue to do it this way?
, , , , , , , , , ,89-NL_DC_STR_20__DATA, 33600, ENC - 7
87,90,ESSEX_OFFICE_SPACE,3000,3000,3000,0,514010,RENT,Office space in Essex for 1.5 FTE (Dan)
, , , , , , , , , ,90-ESSEX_OFFICE_SPACE, 3000, ENC - 7
88,91,NL_DC_SRV_40__DATA,67200,67200,67200,0,514010,RENT,NL Datacenter 40% space [Servers] - Needs assessment as to whether we continue to do it this way?
, , , , , , , , , ,91-NL_DC_SRV_40__DATA, 67200, ENC - 7
89,92,VNX_M&O_VNX01__VNX,0,0,0,0,513032,M&O, VNX_M&O VNX01 VNX02 VNX03 M&O - Storage off prepaid support and M&O. 
90,93,DPS_DEDICATED_EQUI,0,0,0,0,513031,CAPEX,DPS Dedicated Equipment - If DPS is determined to need dedicated equipment for compliance reasons. ESXI hosts M&O fund.
91,777,ADS PC Hardware,2000,2000,318,1682,ADJ_ENCUMB,OPS EXPENSES,ADS PC Hardware Budget Start $2000 GL522216
, , , , , , , , , ,777-ADS PC Hardware, 216.00, PAID - ADS PC Hardware docking ADS Internal docking station
, , , , , , , , , ,777-ADS PC Hardware, 102.00, PAID - ADS PC Hardware back-packs SHI invB08389491
92,888,ADJ_C2 VXRACK Contract 35223,12754,29754,28198,1556,ADJ_ENCUMB,CONTRACT,C2 VXRACK Contract + $17K tool 35223 GL507543
, , , , , , , , , ,888-ADJ_C2 VXRACK Contract 35223, 1871.00, PAID - ADJ_C2 VXRACK Contract 35223 inv24136
, , , , , , , , , ,888-ADJ_C2 VXRACK Contract 35223, 17000.00, PAID - ADJ_C2 VXRACK Contract 35223 inv24195
, , , , , , , , , ,888-ADJ_C2 VXRACK Contract 35223, 2642.00, PAID - ADJ_C2 VXRACK Contract 35223 inv24292
, , , , , , , , , ,888-ADJ_C2 VXRACK Contract 35223, 331.00, PAID - ADJ_C2 VXRACK Contract 35223 inv24599
, , , , , , , , , ,888-ADJ_C2 VXRACK Contract 35223, 2441.00, PAID - ADJ_C2 VXRACK Contract 35223 inv24728
, , , , , , , , , ,888-ADJ_C2 VXRACK Contract 35223, 1472.00, PAID - ADJ_C2 VXRACK Contract 35223 inv24493
, , , , , , , , , ,888-ADJ_C2 VXRACK Contract 35223, 2441.00, PAID - ADJ_C2 VXRACK Contract 35223 inv24728
93,999,AOT-PROCURE Budget,130000,130000,8741.4,121258.6,ADJ_ENCUMB,ADJ_ENC,AOT-PROCURE Budget Start $130000
, , , , , , , , , ,999-AOT-PROCURE Budget, 4760.40, PAID - AOT-PROCURE Veeam SHI invB09080518
, , , , , , , , , ,999-AOT-PROCURE Budget, 3981.00, PAID - AOT-PROCURE HP M&O PHY SHI invS48489842
Totals, , , 3344129, 3149375, 2622948.13, 526426.87
